{
    "urls": [
           
        {
            "url": "http://52bsj.vip:81/api/v3/file/get/29899/box2.json?sign=3cVyKZQr3lFAwdB3HK-A7h33e0MnmG6lLB9oWlvSNnM%3D%3A0",
            "name": "💖月光宝盒家庭版〔多条线路〕"
        },
        {
            "url": "http://我不是.肥猫.love:63/接口禁止贩卖",
            "name": "💖肥猫Panda〔多条线路〕"
        },
        {
            "url": "https://hutool.ml/tang",
            "name": "💖唐三线路〔多条线路〕"
        },                
        {
            "url": "http://饭太硬.ga/x/o.json",
            "name": "💖饭太硬〔多条线路〕"
        },                 
        {
            "url": "http://byyds.top/w.txt",
            "name": "💖分享君〔多条线路〕"
        },        
        {
            "url": "http://www.yunwp.cn/api/v3/file/get/1093/1007.json?sign=kJ5EJJLNzf63QKB1ykTZwbbW9vnMfi-2Wjumk-wtL-E%3D%3A0",
            "name": "☃小马接口〔多条线路〕"
        },
        {
            "url": "https://pan.css.lc/api/v3/file/get/89944/1_%E5%85%AC%E4%BC%97%E5%8F%B7%E6%98%9F%E6%B2%B3%E8%BD%AF%E4%BB%B6%E5%9B%AD%E7%BB%B4%E6%8A%A4%E6%9B%B4%E6%96%B0.txt?sign=TK-f6wSUHkZ2A3gpMRzd7NDAJI9dvqDaJE_U-lekrVg%3D%3A0",
            "name": "✨星河接口〔多条线路〕"
        },                      
        {
            "url": "https://agit.ai/Yoursmile7/TVBox/raw/branch/master/XC.json",
            "name": "💨南风〔多条线路〕"
        },   
        {
            "url": "https://神器每日推送.tk/pz.json",
            "name": "🤪神器推送〔多条线路〕"
        },       
        {
            "url": "http://52bsj.vip:98/wuai",
            "name": "🌝吾爱〔多条线路〕"
        },   
        {
            "url": "http://9xi4o.tk/0725.json",
            "name": "4K云盘〔多条线路〕"
        },           
        {
            "url": "https://agit.ai/nbwzlyd/xiaopingguo/raw/branch/master/xiaopingguo/xiaopingguo.json",
            "name": "🍎小苹果〔多条线路〕"
        },
        {
            "url": "https://raw.iqiq.io/liu673cn/box/main/m.json",
            "name": "🍸老刘备〔多条线路〕"
        },
        {
            "url": "http://js.134584.xyz/json/pp87.json",
            "name": "💨白嫖线路〔多条线路〕"
        },
        {
            "url": "http://52bsj.vip:81/api/v3/file/get/46060/Tv%20box%E6%BA%902.txt?sign=yI8sCYT8pei-pxp1_xwLjWOfepQ9b7c1y6Q_QD_0RY4%3D%3A0",
            "name": "🐾兽爪线路〔多条线路〕"
        },
        {
            "url": "http://www.dmtv.ml/mao/single.json",
            "name": "🧗‍♀️乱世〔多条线路〕"
        },
        {
            "url": "http://maoyingshi.cc/tvbox/云星日记/1.m3u8",
            "name": "☁️云星家庭〔纯绿色家庭版〕"
        },
        {
            "url": "http://maoyingshi.cc/tvbox/云星日记/ali.m3u8",
            "name": "☁️云星阿里〔小纸条/推送等〕"
        },
        {
            "url": "http://maoyingshi.cc/tvbox/云星日记/bili.json",
            "name": "☁️云星哔哩〔大套餐/学堂等〕"
        },
        {
            "url": "https://agit.ai/relax/adcc/raw/branch/master/tvbox.json",
            "name": "😵巧技接口〔多条线路〕"
        }
        

    ],
    "vip": [
        {
            "url": "",
            "name": "默认"
        }
    ]
}
